{
    "interactionModel": {
        "languageModel": {
            "invocationName": "reportera adn",
            "intents": [
                {
                    "name": "FullReportIntent",
                    "slots": [],
                    "samples": [
                        "Cuéntamelo todo",
                        "Todo de una vez",
                        "Dímelo todo de una tacada",
                        "Quiero escucharlo todo de golpe",
                        "Evalúame de forma completa",
                        "Cuéntamelo todo de una vez",
                        "Quiero todos lo comentarios de golpe",
                        "Quiero que me leas el informe de una tacada",
                        "Quiero que me hagas una evaluación al completo",
                        "Dime todo el informe de golpe",
                        "Evalúame por completo",
                        "Quiero que me recites el informe completo",
                        "Hazme una evaluación completa",
                        "Dime el informe completo"
                    ]
                },
                {
                    "name": "IncrementalReportIntent",
                    "slots": [],
                    "samples": [
                        "Cuéntame el informe de forma pausada",
                        "De forma pausada",
                        "De forma ordenada",
                        "Poco a poco",
                        "Cuéntamelo a cachos",
                        "Quiero que me lo cuentes todo poco a poco y de forma ordenada",
                        "Evalúame de forma ordenada",
                        "Quiero que me recites el informe de forma incremental",
                        "Cuéntame el informe poco a poco",
                        "Dime el informe poco a poco",
                        "Evalúame de forma incremental",
                        "Dime el informe de forma incremental"
                    ]
                },
                {
                    "name": "AMAZON.NextIntent",
                    "samples": [
                        "No pares",
                        "next",
                        "procede",
                        "Puedes seguir",
                        "Que más me puedes contar sobre el informe",
                        "Continúa",
                        "sigue",
                        "Avanza",
                        "Cuéntame un poco más",
                        "Sigue evaluándome",
                        "Puedes continuar",
                        "Continúa con la evaluación",
                        "Dime el siguiente incremento",
                        "Siguiente"
                    ]
                },
                {
                    "name": "AMAZON.PreviousIntent",
                    "samples": [
                        "Da marcha atrás",
                        "Vuelve al punto anterior",
                        "Retrocede al incremento anterior",
                        "Retrocede",
                        "Vuelve a contarme el anterior incremento",
                        "cuéntame de nuevo el incremento anterior",
                        "puedes contarme el anterior incremento",
                        "Dime el anterior incremento",
                        "Atrás"
                    ]
                },
                {
                    "name": "RepeatCommentsIntent",
                    "slots": [],
                    "samples": [
                        "Qué dijiste",
                        "Repíteme lo anterior",
                        "Me puedes repetir lo último que has dicho",
                        "Recítalo nuevamente",
                        "Me lo puedes repetir",
                        "Dilo de nuevo",
                        "Repite",
                        "Repiteme los últimos comentarios",
                        "Repite lo que acabas de decir",
                        "Estaba distraído y no te esuché",
                        "Cuentame de nuevo lo que acabas de decir",
                        "Me lo puedes contar de nuevo"
                    ]
                },
                {
                    "name": "RestOfCommentsIntent",
                    "slots": [],
                    "samples": [
                        "Continúa hasta finalizar",
                        "No te pares hasta que termines",
                        "Sigue hasta terminar",
                        "cuéntame la información restante",
                        "El resto del informe",
                        "Cuéntame el resto de comentarios",
                        "Di lo que queda",
                        "Dime todo lo demás",
                        "Dímelo todo.",
                        "Continúa hasta terminar.",
                        "Dime el resto de comentarios",
                        "Evalúame en el resto de apartados.",
                        "Dime todo lo que queda.",
                        "Cuéntame el resto"
                    ]
                },
                {
                    "name": "OnDemandReportIntent",
                    "slots": [],
                    "samples": [
                        "Cuéntamelo a petición",
                        "Cuéntame el informe a la carta",
                        "Quiero que me recites el informe a la carta",
                        "Evalúame a la carta",
                        "Quiero que me recites el informe bajo demanda",
                        "Cuéntame el informe bajo demanda",
                        "Dime el informe bajo demanda",
                        "Evalúame bajo demanda",
                        "Dime el informe de forma que yo te diga el tipo de comentarios",
                        "Quiero que me recites el informe como yo te diga",
                        "Cuéntame el informe como yo te diga",
                        "Dime el informe como yo te diga",
                        "Evalúame como yo te diga",
                        "Quiero que me recites el informe por tipo de comentario",
                        "Cuéntame el informe por tipo de comentario",
                        "Dime el informe por tipo de comentario",
                        "Evalúame por tipo de comentario"
                    ]
                },
                {
                    "name": "SelectReportByDateIntent",
                    "slots": [
                        {
                            "name": "report_month_period",
                            "type": "MONTH_PERIOD"
                        },
                        {
                            "name": "report_month",
                            "type": "MONTH"
                        },
                        {
                            "name": "report_year",
                            "type": "AMAZON.NUMBER"
                        }
                    ],
                    "samples": [
                        "Quiero solicitar el informe de la {report_month_period} quincena del año {report_year}",
                        "Quiero que busques el {report_month_period} informe de {report_month} de {report_year}",
                        "Que Busque el {report_month_period} informe de {report_month} de {report_year}",
                        "Que Seleccione el {report_month_period} informe de {report_month} de {report_year}",
                        "Que Consulte el {report_month_period} informe de {report_month} de {report_year}",
                        "Que Busque el informe de de la {report_month_period} quincena de {report_month} de {report_year}",
                        "Que Seleccione el informe de de la {report_month_period} quincena de {report_month} de {report_year}",
                        "Que Consulte el informe de de la {report_month_period} quincena de {report_month} de {report_year}",
                        "Busca el {report_month_period} informe de {report_month} de {report_year}",
                        "Selecciona el {report_month_period} informe de {report_month} de {report_year}",
                        "Consulta el {report_month_period} informe de {report_month} de {report_year}",
                        "El {report_month_period} informe de {report_month} de {report_year}",
                        "Busca el informe de de la {report_month_period} quincena de {report_month} de {report_year}",
                        "Selecciona el informe de de la {report_month_period} quincena de {report_month} de {report_year}",
                        "Consulta el informe de de la {report_month_period} quincena de {report_month} de {report_year}",
                        "El informe de de la {report_month_period} quincena de {report_month} de {report_year}",
                        "Busca el informe de de la {report_month_period} quincena del año {report_year}",
                        "Quiero que selecciones el informe de la {report_month_period} quincena de {report_month} de {report_year}",
                        "Quiero que selecciones el {report_month_period} informe de {report_month} de {report_year}",
                        "selecciona el informe de la {report_month_period} quincena del año {report_year}",
                        "Cual es mi informe de la {report_month_period} quincena del año {report_year}",
                        "Quiero que me recites el {report_month_period} informe del año {report_year}",
                        "Quiero que me recites el informe de la {report_month_period} quincena del año {report_year}",
                        "Quiero que me evalúes",
                        "Me puedes recitar uno de mis informes",
                        "Quiero que me recites el {report_month_period} informe de {report_month} de {report_year}",
                        "Quiero que me recites el informe de la {report_month_period} quincena de {report_month} de {report_year}",
                        "Cual es mi informe de la {report_month_period} quincena de {report_month} de {report_year}",
                        "Puedes evaluarme",
                        "Evalúame"
                    ]
                },
                {
                    "name": "SpecificHelpIntent",
                    "slots": [
                        {
                            "name": "help_topic",
                            "type": "HELP_TOPIC"
                        }
                    ],
                    "samples": [
                        "Quiero saber como funciona esto",
                        "Como puedo proceder",
                        "Como puedo avanzar",
                        "Dime como seguir",
                        "Ojalá alguien me dijese como funciona {help_topic}",
                        "Explícame el funcionamiento de {help_topic}",
                        "No tengo ni idea de como funciona {help_topic}",
                        "Como se accede a la funcionalidad {help_topic}",
                        "Como puedo invocar {help_topic}",
                        "Por favor puedes ayudarme con {help_topic}",
                        "No se como se utiliza {help_topic}",
                        "Exijo que me ayudes con {help_topic}",
                        "Ayúdame con {help_topic}",
                        "Necesito ayuda con {help_topic}",
                        "Me puedes ayudar con {help_topic}"
                    ]
                },
                {
                    "name": "AMAZON.CancelIntent",
                    "samples": []
                },
                {
                    "name": "AMAZON.HelpIntent",
                    "samples": [
                        "Ojalá alguien me dijese como funciona",
                        "Explícame el funcionamiento",
                        "No tengo ni idea de como funciona",
                        "Como continúo",
                        "Como puedo continuar",
                        "Por favor puedes ayudarme",
                        "No se como se utiliza esto",
                        "Exijo que me ayudes con esto",
                        "Ayúdame con esto",
                        "Necesito ayuda con esto",
                        "Me puedes ayudar con esto"
                    ]
                },
                {
                    "name": "AMAZON.StopIntent",
                    "samples": []
                },
                {
                    "name": "AMAZON.NavigateHomeIntent",
                    "samples": []
                },
                {
                    "name": "SetUserApiIdIntent",
                    "slots": [
                        {
                            "name": "api_user_id",
                            "type": "AMAZON.NUMBER"
                        }
                    ],
                    "samples": [
                        "Quiero que mi perfil esté configurado como {api_user_id}",
                        "Quiero que mi id de usuario pase a ser {api_user_id}",
                        "Configura mi perfil como {api_user_id}",
                        "Quiero usar el identificador {api_user_id}",
                        "Cambia la cuenta con el código {api_user_id}",
                        "Puedes configurar mi cuenta con el usuario {api_user_id}",
                        "Quiero que mi identificador pase a ser {api_user_id}",
                        "Te ordeno que me configures el código de usuario de esta cuenta con {api_user_id}",
                        "Quiero cambiar mi configuración de usuario con {api_user_id}",
                        "Configurame mi id de usuario con  {api_user_id}",
                        "Me puedes configurar el código de usuario con {api_user_id}",
                        "Quiero que mi id de usuario sea {api_user_id}",
                        "Quiero configurar mi código de usuario con el id {api_user_id}"
                    ]
                },
                {
                    "name": "GetUserApiIdIntent",
                    "slots": [],
                    "samples": [
                        "Chequea mi identificador de conductor",
                        "consulta mi identificador de conductor",
                        "consulta mi perfil",
                        "Quiero conocer mi código de usuario",
                        "Quiero consultar mi código de usuario",
                        "Dime mi código de usuario",
                        "Quiero saber con qué usuario estoy registrado",
                        "Quiero comprobar mi código de usuario",
                        "Quiero saber qé código de usuario estoy utilizando",
                        "Cual es el id de usuario configurado en esta cuenta",
                        "Me puedes decir cual es mi código de usuario"
                    ]
                },
                {
                    "name": "OnDemandByTypeIntent",
                    "slots": [
                        {
                            "name": "item_type",
                            "type": "ITEM_TYPE"
                        }
                    ],
                    "samples": [
                        "habré mejorado en relación a {item_type}",
                        "Cual es mi valoración en relación a {item_type}",
                        "Me interesa saber sobre mi rendimiento respecto a {item_type}",
                        "Me puedes valorar respecto a {item_type}",
                        "Cuéntame los comentarios categorizados como {item_type}",
                        "Dime solo los comentarios categorizados como {item_type}",
                        "Valórame solamente en relación a {item_type}",
                        "Cuéntame los comentarios de tipo {item_type}",
                        "Dime los comentarios de tipo {item_type}"
                    ]
                },
                {
                    "name": "OnDemandByTypeOneIntent",
                    "slots": [
                        {
                            "name": "item_type",
                            "type": "ITEM_TYPE"
                        }
                    ],
                    "samples": [
                        "Hazme una valoración de un solo comentario en relación a {item_type}",
                        "Cual es mi valoración en relación a {item_type} si tuvieses que decirlo en una sola frase.",
                        "Me interesa saber en una sola valoración sobre mi rendimiento respecto a {item_type}",
                        "Me puedes valorar con un comentario respecto a {item_type}",
                        "Cuéntame un comentario categorizado como {item_type}",
                        "Dime solo un comentario categorizados como {item_type}",
                        "Valórame solamente con un comentario en relación a {item_type}",
                        "Cuéntame un comentario de tipo {item_type}",
                        "Dime un comentario de tipo {item_type}"
                    ]
                },
                {
                    "name": "ClearProfileIntent",
                    "slots": [],
                    "samples": [
                        "haz un reseteo de mi cuenta",
                        "borrado de mi perfil",
                        "reseteo de mi perfil",
                        "resetea mi perfil",
                        "limipia mi perfil",
                        "quiero dejar mi perfil limpio",
                        "puedes resetear mi perfil",
                        "deja la configuración de mi cuenta a los valores por defecto",
                        "restaura la configuración de mi cuenta",
                        "vacía la configuración de mi cuenta",
                        "despeja la configuración de mi cuenta",
                        "borra la configuración de mi cuenta",
                        "limpia la configuración de mi cuenta",
                        "reseteame la configuración de mi cuenta",
                        "Quiero resetear la configuración de mi cuenta"
                    ]
                }
            ],
            "types": [
                {
                    "name": "MONTH_PERIOD",
                    "values": [
                        {
                            "id": "2",
                            "name": {
                                "value": "segunda",
                                "synonyms": [
                                    "último",
                                    "segundo",
                                    "final",
                                    "última"
                                ]
                            }
                        },
                        {
                            "id": "1",
                            "name": {
                                "value": "primera",
                                "synonyms": [
                                    "primero",
                                    "primer",
                                    "inicial"
                                ]
                            }
                        }
                    ]
                },
                {
                    "name": "DATE_EXTENSION",
                    "values": [
                        {
                            "id": "LAST_Y",
                            "name": {
                                "value": "año pasado",
                                "synonyms": [
                                    "año anterior"
                                ]
                            }
                        },
                        {
                            "id": "LAST_M",
                            "name": {
                                "value": "mes pasado",
                                "synonyms": [
                                    "mes anterior"
                                ]
                            }
                        }
                    ]
                },
                {
                    "name": "MONTH",
                    "values": [
                        {
                            "id": "-1",
                            "name": {
                                "value": "mes pasado"
                            }
                        },
                        {
                            "id": "0",
                            "name": {
                                "value": "Este mes"
                            }
                        },
                        {
                            "id": "12",
                            "name": {
                                "value": "Diciembre"
                            }
                        },
                        {
                            "id": "11",
                            "name": {
                                "value": "Noviembre"
                            }
                        },
                        {
                            "id": "10",
                            "name": {
                                "value": "Octubre"
                            }
                        },
                        {
                            "id": "9",
                            "name": {
                                "value": "Septiembre"
                            }
                        },
                        {
                            "id": "8",
                            "name": {
                                "value": "Agosto"
                            }
                        },
                        {
                            "id": "7",
                            "name": {
                                "value": "Julio"
                            }
                        },
                        {
                            "id": "6",
                            "name": {
                                "value": "Junio"
                            }
                        },
                        {
                            "id": "5",
                            "name": {
                                "value": "Mayo"
                            }
                        },
                        {
                            "id": "4",
                            "name": {
                                "value": "Abril"
                            }
                        },
                        {
                            "id": "3",
                            "name": {
                                "value": "Marzo"
                            }
                        },
                        {
                            "id": "2",
                            "name": {
                                "value": "Febrero"
                            }
                        },
                        {
                            "id": "1",
                            "name": {
                                "value": "Enero"
                            }
                        }
                    ]
                },
                {
                    "name": "HELP_TOPIC",
                    "values": [
                        {
                            "id": "2",
                            "name": {
                                "value": "Selección de Informe por fecha",
                                "synonyms": [
                                    "selección fecha",
                                    "fecha",
                                    "informe fecha",
                                    "informe por fecha",
                                    "selección por fecha"
                                ]
                            }
                        },
                        {
                            "id": "1",
                            "name": {
                                "value": "Informe Completo",
                                "synonyms": [
                                    "lectura de todos los comentarios",
                                    "informe entero",
                                    "informe del tirón",
                                    "lectura del informe completo",
                                    "Informe de golpe"
                                ]
                            }
                        },
                        {
                            "id": "3",
                            "name": {
                                "value": "Comando de Ayuda",
                                "synonyms": [
                                    "ayudante",
                                    "consejo",
                                    "asistente",
                                    "comando de asistencia",
                                    "asistencia",
                                    "comando específico de ayuda",
                                    "ayuda"
                                ]
                            }
                        }
                    ]
                },
                {
                    "name": "ITEM_TYPE",
                    "values": [
                        {
                            "id": "SECOGENERAL",
                            "name": {
                                "value": "SECOGENERAL",
                                "synonyms": [
                                    "en suelo seco global",
                                    "en suelo seco general",
                                    "en seco global",
                                    "en seco general"
                                ]
                            }
                        },
                        {
                            "id": "POSICIÓNGENERAL",
                            "name": {
                                "value": "POSICIÓNGENERAL",
                                "synonyms": [
                                    "en ubicación global",
                                    "en ubicación general",
                                    "en zona global",
                                    "en zona general",
                                    "comentarios con coordenadas",
                                    "comentarios con imagen",
                                    "imagen general",
                                    "imagen global",
                                    "situación global",
                                    "situación general",
                                    "posición global",
                                    "posición general"
                                ]
                            }
                        },
                        {
                            "id": "CLIMAGENERAL",
                            "name": {
                                "value": "CLIMAGENERAL",
                                "synonyms": [
                                    "suelo húmedo general",
                                    "suelo húmedo global",
                                    "mojado general",
                                    "mojado global",
                                    "días lluviosos general",
                                    "días lluviosos global",
                                    "climatológico global",
                                    "lluvia global",
                                    "clima global",
                                    "climatológico general",
                                    "lluvia general",
                                    "clima general"
                                ]
                            }
                        },
                        {
                            "id": "PosicionArranque",
                            "name": {
                                "value": "PosicionArranque",
                                "synonyms": [
                                    "inicio con coordenadas",
                                    "inicio con imagen",
                                    "inicio en posición",
                                    "inicio en situación",
                                    "inicio en zona",
                                    "inicio en ubicación",
                                    "aceleración con coordenadas",
                                    "aceleración con imagen",
                                    "aceleración en posición",
                                    "aceleración en situación",
                                    "aceleración en zona",
                                    "aceleración en ubicación",
                                    "arranque en ubicación",
                                    "arranque en zona",
                                    "arranque en situación",
                                    "arranque en posición",
                                    "arranque con imagen",
                                    "arranque con coordenadas"
                                ]
                            }
                        },
                        {
                            "id": "ClimaArranque",
                            "name": {
                                "value": "ClimaArranque",
                                "synonyms": [
                                    "inicio con lluvia",
                                    "inicio con clima",
                                    "inicio en días lluviosos",
                                    "inicio en mojado",
                                    "inicio en suelo húmedo",
                                    "aceleración con lluvia",
                                    "aceleración con clima",
                                    "aceleración en días lluviosos",
                                    "aceleración en mojado",
                                    "aceleración en suelo húmedo",
                                    "arranque en suelo húmedo",
                                    "arranque en mojado",
                                    "arranque en días lluviosos",
                                    "arranque con clima",
                                    "arranque con lluvia"
                                ]
                            }
                        },
                        {
                            "id": "Arranque",
                            "name": {
                                "value": "Arranque",
                                "synonyms": [
                                    "arranque en suelo seco",
                                    "arranque en seco",
                                    "inicio en suelo seco",
                                    "inicio en seco",
                                    "aceleración en suelo seco",
                                    "aceleración en seco",
                                    "aceleración específica",
                                    "aceleración sin más",
                                    "aceleración",
                                    "inicio específico",
                                    "inicio sin más",
                                    "inicio",
                                    "arranque sin más",
                                    "arranque específico",
                                    "arranque"
                                ]
                            }
                        },
                        {
                            "id": "PosicionMarcha",
                            "name": {
                                "value": "PosicionMarcha",
                                "synonyms": [
                                    "movimiento en ubicación",
                                    "marcha en ubicación",
                                    "trayecto en ubicación",
                                    "movimiento en zona",
                                    "movimiento en situación",
                                    "movimiento en posición",
                                    "movimiento con imagen",
                                    "movimiento situacional",
                                    "movimiento con coordenadas",
                                    "trayecto en situación",
                                    "trayecto en zona",
                                    "trayecto con imagen",
                                    "trayecto con coordenadas",
                                    "trayecto situacional",
                                    "trayecto en posición",
                                    "marcha en posición",
                                    "marcha situacional",
                                    "marcha con coordenadas",
                                    "marcha con imagen",
                                    "marcha en situación",
                                    "marcha en zona"
                                ]
                            }
                        },
                        {
                            "id": "ClimaMarcha",
                            "name": {
                                "value": "ClimaMarcha",
                                "synonyms": [
                                    "movimiento con clima",
                                    "movimiento con lluvia",
                                    "movimiento en días lluviosos",
                                    "movimiento en mojado",
                                    "movimiento en suelo húmedo",
                                    "trayecto en suelo húmedo",
                                    "trayecto en mojado",
                                    "trayecto en días lluviosos",
                                    "trayecto con lluvia",
                                    "trayecto con clima",
                                    "marcha con clima",
                                    "marcha en mojado",
                                    "marcha en días lluviosos",
                                    "marcha con lluvia",
                                    "marcha en suelo húmedo"
                                ]
                            }
                        },
                        {
                            "id": "Marcha",
                            "name": {
                                "value": "Marcha",
                                "synonyms": [
                                    "trayecto en suelo seco",
                                    "trayecto en seco",
                                    "marcha en suelo seco",
                                    "marcha en seco",
                                    "movimiento en suelo seco",
                                    "movimiento en seco",
                                    "movimiento específico",
                                    "movimiento sin más",
                                    "movimiento",
                                    "trayecto sin más",
                                    "trayecto",
                                    "trayecto específico",
                                    "marcha específico",
                                    "marcha sin más",
                                    "marcha"
                                ]
                            }
                        },
                        {
                            "id": "PosicionParada",
                            "name": {
                                "value": "PosicionParada",
                                "synonyms": [
                                    "freno en ubicación",
                                    "parado en ubicación",
                                    "freno en zona",
                                    "freno con imagen",
                                    "freno en situación",
                                    "freno situacional",
                                    "freno con coordenadas",
                                    "freno en posición",
                                    "parado en posición",
                                    "parado con coordenadas",
                                    "parado situacional",
                                    "parado en situación",
                                    "parado con imagen",
                                    "parado en zona"
                                ]
                            }
                        },
                        {
                            "id": "ClimaParada",
                            "name": {
                                "value": "ClimaParada",
                                "synonyms": [
                                    "freno en suelo húmedo",
                                    "freno en mojado",
                                    "freno en días lluviosos",
                                    "freno con lluvia",
                                    "freno con clima",
                                    "parado en suelo húmedo",
                                    "parado en mojado",
                                    "parado en días lluviosos",
                                    "parado con lluvia",
                                    "parado con clima"
                                ]
                            }
                        },
                        {
                            "id": "Parada",
                            "name": {
                                "value": "Parada",
                                "synonyms": [
                                    "parado en suelo seco",
                                    "parado en seco",
                                    "freno en suelo seco",
                                    "freno en seco",
                                    "freno específico",
                                    "freno sin más",
                                    "freno",
                                    "parado sin más",
                                    "parado específico",
                                    "parado"
                                ]
                            }
                        },
                        {
                            "id": "Animar",
                            "name": {
                                "value": "Animar",
                                "synonyms": [
                                    "estímulo",
                                    "estimular",
                                    "ánimos",
                                    "alentar",
                                    "aliento",
                                    "ánimo"
                                ]
                            }
                        },
                        {
                            "id": "EvolucionNPeriodosGlobal",
                            "name": {
                                "value": "EvolucionNPeriodosGlobal",
                                "synonyms": [
                                    "mejora",
                                    "evolución",
                                    "tendencia"
                                ]
                            }
                        },
                        {
                            "id": "EvolucionPeriodoAnteriorGlobal",
                            "name": {
                                "value": "EvolucionPeriodoAnteriorGlobal",
                                "synonyms": [
                                    "mejora periodo anterior",
                                    "evolución periodo anterior",
                                    "tendencia en periodo anterior",
                                    "periodo anterior"
                                ]
                            }
                        },
                        {
                            "id": "Global",
                            "name": {
                                "value": "Global",
                                "synonyms": [
                                    "evaluación",
                                    "comentario general",
                                    "sinopsis",
                                    "sumario",
                                    "comentario resumen",
                                    "síntesis",
                                    "resumen"
                                ]
                            }
                        },
                        {
                            "id": "ARRANQUEGLOBAL",
                            "name": {
                                "value": "ARRANQUEGLOBAL",
                                "synonyms": [
                                    "inicio general",
                                    "inicio global",
                                    "aceleración general",
                                    "aceleración global",
                                    "arranque completo",
                                    "arranque general"
                                ]
                            }
                        },
                        {
                            "id": "MARCHAGLOBAL",
                            "name": {
                                "value": "MARCHAGLOBAL"
                            }
                        },
                        {
                            "id": "PARADAGLOBAL",
                            "name": {
                                "value": "PARADAGLOBAL",
                                "synonyms": [
                                    "parado completo",
                                    "freno completo",
                                    "freno global",
                                    "freno general",
                                    "parado global",
                                    "parado general",
                                    "parada general"
                                ]
                            }
                        },
                        {
                            "id": "GENERAL",
                            "name": {
                                "value": "GENERAL",
                                "synonyms": [
                                    "síntesis general",
                                    "síntesis global",
                                    "sinorpsis global",
                                    "sinopsis general",
                                    "sumario global",
                                    "resumen global",
                                    "sumario general",
                                    "resumen general",
                                    "evaluación general",
                                    "evaluación global"
                                ]
                            }
                        }
                    ]
                }
            ]
        }
    }
}